<?xml version="1.0" encoding="UTF-8" standalone="no"?>
<svg width="36px" height="37px" viewBox="0 0 36 37" version="1.1" xmlns="http://www.w3.org/2000/svg" xmlns:xlink="http://www.w3.org/1999/xlink" xmlns:sketch="http://www.bohemiancoding.com/sketch/ns">
    <!-- Generator: Sketch 3.3.2 (12043) - http://www.bohemiancoding.com/sketch -->
    <title>edit</title>
    <desc>Created with Sketch.</desc>
    <defs></defs>
    <g id="Responsive-screens" stroke="none" stroke-width="1" fill="none" fill-rule="evenodd" sketch:type="MSPage">
        <g id="My-Messages" sketch:type="MSArtboardGroup" transform="translate(-1077.000000, -1956.000000)" stroke="#FFFFFF" stroke-width="2">
            <g id="edit" sketch:type="MSLayerGroup" transform="translate(1078.000000, 1958.000000)">
                <path d="M21.4057488,5.90878155 L27.5643614,12.0352219 M6.61929102,33.1707317 L33.1707317,6.58471224 L26.5514407,0 L8.28580988e-15,26.5860195 L0,33.1707317 L6.61929102,33.1707317 Z M13.7243902,33.1707317 L32.7386235,33.1707317" id="shape" sketch:type="MSShapeGroup"></path>
            </g>
        </g>
    </g>
</svg>