<?xml version="1.0" encoding="UTF-8" standalone="no"?>
<svg width="25px" height="22px" viewBox="0 0 25 22" version="1.1" xmlns="http://www.w3.org/2000/svg" xmlns:xlink="http://www.w3.org/1999/xlink" xmlns:sketch="http://www.bohemiancoding.com/sketch/ns">
    <!-- Generator: Sketch 3.3.2 (12043) - http://www.bohemiancoding.com/sketch -->
    <title>email</title>
    <desc>Created with Sketch.</desc>
    <defs></defs>
    <g id="Responsive-screens" stroke="none" stroke-width="1" fill="none" fill-rule="evenodd" sketch:type="MSPage">
        <g id="Sign-In-[Active]" sketch:type="MSArtboardGroup" transform="translate(-539.000000, -543.000000)">
            <g id="Sign-In-form" sketch:type="MSLayerGroup" transform="translate(516.500000, 361.000000)">
                <g id="email-copy" transform="translate(0.000000, 152.000000)" sketch:type="MSShapeGroup">
                    <g id="email" transform="translate(20.050746, 25.577290)">
                        <g id="group" transform="translate(3.044776, 4.871642)" stroke="#bbbbbe" stroke-width="2">
                            <rect id="shape" stroke-linecap="round" x="0" y="0" width="24.358209" height="20.7044776"></rect>
                            <path d="M23.108335,0.957074516 L12.3925774,11.8808196 L1.01849128,0.970013969" id="shape"></path>
                        </g>
                        <rect id="bounds" x="0" y="0" width="30.4477612" height="30.4477612"></rect>
                    </g>
                </g>
            </g>
        </g>
    </g>
</svg>