<?xml version="1.0" encoding="UTF-8" standalone="no"?>
<svg width="25px" height="23px" viewBox="0 0 25 23" version="1.1" xmlns="http://www.w3.org/2000/svg" xmlns:xlink="http://www.w3.org/1999/xlink" xmlns:sketch="http://www.bohemiancoding.com/sketch/ns">
    <!-- Generator: Sketch 3.3.2 (12043) - http://www.bohemiancoding.com/sketch -->
    <title>shape</title>
    <desc>Created with Sketch.</desc>
    <defs></defs>
    <g id="Responsive-screens" stroke="none" stroke-width="1" fill="none" fill-rule="evenodd" sketch:type="MSPage">
        <g id="Sign-In-[Active]" sketch:type="MSArtboardGroup" transform="translate(-537.000000, -389.000000)" stroke="#bbbbbe" stroke-width="2">
            <g id="Sign-In-form" sketch:type="MSLayerGroup" transform="translate(516.500000, 361.000000)">
                <g id="first-name" transform="translate(18.000000, 19.000000)" sketch:type="MSShapeGroup">
                    <g id="name" transform="translate(0.050746, 5.569272)">
                        <path d="M15.2238806,16.8139303 C11.1134328,16.8139303 3.04477612,18.8143377 3.04477612,22.9690299 L3.04477612,26.0465796 L27.4029851,26.0465796 L27.4029851,22.9690299 C27.4029851,18.8143377 19.3343284,16.8139303 15.2238806,16.8139303 L15.2238806,16.8139303 Z M15.2238806,14.4119403 C18.238209,14.4119403 20.7044776,11.9799254 20.7044776,9.00746269 C20.7044776,6.035 18.238209,3.60298507 15.2238806,3.60298507 C12.2095522,3.60298507 9.74328358,6.035 9.74328358,9.00746269 C9.74328358,11.9799254 12.2095522,14.4119403 15.2238806,14.4119403 L15.2238806,14.4119403 Z" id="shape"></path>
                    </g>
                </g>
            </g>
        </g>
    </g>
</svg>